#base "_base_ability_tactical.txt"

WeaponData
{
	// General
	"printname"   									"#WPN_GRAPPLE"
	"shortprintname"								"#WPN_GRAPPLE"
	"description" 									"#WPN_GRAPPLE_DESC"
	"longdesc"										"#WPN_GRAPPLE_LONGDESC"

	"menu_icon"										"rui/pilot_loadout/suit/grapple"
	"hud_icon"										"rui/hud/tactical_icons/tactical_pathfinder"

	"weapon_type_flags"								"WPT_TACTICAL"
	"weaponClass" 									"human"
	"fire_mode"   									"offhandInstant"
	"offhand_default_inventory_slot"				"1"
	//"offhand_interupts_weapon_anims"				"1"

	"OnWeaponActivate"								"OnWeaponActivate_ability_grapple"
	"OnWeaponPrimaryAttack"							"OnWeaponPrimaryAttack_ability_grapple"
	"OnWeaponAttemptOffhandSwitch"					"OnWeaponAttemptOffhandSwitch_ability_grapple"
	"OnWeaponReadyToFire"							"OnWeaponReadyToFire_ability_grapple"
	"dev_menu_type"									"offhand" // fire_mode isn't readable from script

	// Models
	//"viewmodel"   									"mdl/weapons/clacker_detonator/ptpov_clacker_detonator.rmdl"
	"playermodel"									"mdl/weapons/empty_handed/w_empty_handed_human.rmdl"
	"projectilemodel" 								"mdl/dev/empty_model.rmdl"

	// Sounds
	"sound_dryfire"									"Survival_UI_Ability_NotReady"

	// Ammo
	//"ammo_display"									"bar"
	//"ammo_stockpile_max"							"150"
	//"ammo_clip_size"   								"150"
	//"ammo_default_total"							"150"
	//"ammo_per_shot"									"1"
	//"ammo_min_to_fire"								"150"
	//"ammo_no_remove_from_clip"						"0"

	"sound_weapon_ready"							"survival_ui_tactical_ready"

	// Damage
	"damage_type" 									"none"
	"explosion_damage_heavy_armor"					"0"
	"damage_near_distance"							"0"
	"damage_far_distance" 							"0"
	"damage_near_value"   							"0"
	"damage_far_value"								"0"

	// Behavior
	"fire_rate"   									"1000.0"
	"fire_duration"									"0.001"
	"fire_anim_rate"								"5.0"
	"holster_time"									"0.15"
	"deploy_time" 									"0.25"
	"lower_time"  									"0"
	"raise_time"  									"0"
	"allow_empty_fire"								"0"
	"reload_enabled"								"0"
	"empty_reload_only"   							"0"
	"allow_empty_click"   							"0"
	"trigger_snipercam"   							"0"
	"allow_headshots" 								"0"
	"breaks_cloak"									"0"
	"primary_fire_does_not_block_sprint"			"1"
	"aimassist_disable_hipfire"						"1"
	"aimassist_disable_ads"							"1"
	"cooldown_type"									"ammo" //breaks in SP versus MP

	"viewkick_spring" 								"rspn101"

	"toss_pullout_time"								"0.25"
	"toss_time"										"0.25"
	"toss_overhead_time"							"0.25"

	"hud_grapple_indicator"							"1"

	"grapple_weapon"								"1"

	MP_BASE
	{
	    "grapple_power_required"						"100"
        "grapple_power_use_rate"						"0"
        "grapple_maxLength"								"5000"
        "grapple_maxLengthVert"							"5000"
        "ammo_clip_size"								"150"
        "ammo_default_total"							"150"
        "ammo_display"									"count"
        "ammo_min_to_fire"								"150"
        "ammo_per_shot"									"1"
        "ammo_stockpile_max"							"150"
        "regen_ammo_refill_rate"						"150"
        "regen_ammo_refill_start_delay"					"0.0"
        "ammo_no_remove_from_stockpile"					"0"
        "ammo_no_remove_from_clip"						"0"
	}

	SP_BASE
	{
		"grapple_power_required"						"0"
		"grapple_power_use_rate"						"0"
		"grapple_maxLength"								"5000"
	    "grapple_maxLengthVert"							"5000"

        "ammo_clip_size"								"150"
        "ammo_default_total"							"150"
        "ammo_display"									"count"
        "ammo_min_to_fire"								"150"
        "ammo_per_shot"									"1"
        "ammo_stockpile_max"							"150"
        "regen_ammo_refill_rate"						"150"
        "regen_ammo_refill_start_delay"					"0.0"
        "ammo_no_remove_from_stockpile"					"0"
        "ammo_no_remove_from_clip"						"0"
	}

	active_crosshair_count				"2"
	rui_crosshair_index					"0"

	"ordnance_crosshair_always_on_start_index"	"1"

	RUI_CrosshairData
	{
		DefaultArgs
		{
			adsFrac 					player_zoomFrac
			crosshairMovementX          crosshair_movement_x
		    crosshairMovementY          crosshair_movement_y
			teamColor					crosshair_team_color
		}

		Crosshair_1
		{
			"ui"						"ui/crosshair_grapple_charge"
			"base_spread"				"0.0"
			Args
			{
				isFiring				weapon_is_firing
				chargeStartTime			weapon_script_time_0
				chargeMaxTime			eWeaponVar.custom_float_0
			}
		}

		Crosshair_2
		{
			"ui"						"ui/crosshair_grapple"
			Args
			{
			    ammoFrac                "progress_weapon_clip_ammo_frac"
    			isGrappleInRange		"grapple_in_range"
				grappleInRangeTime		"grapple_in_range_time"
				grappleOutOfRangeTime	"grapple_out_of_range_time"
    			weaponIsDisabled		"weapon_is_disabled"
			}
		}
	}

	Mods
	{
	    survival_armor_cooldown_mod
        {
            "regen_ammo_refill_rate"    "*1.25"
            "grapple_power_required"	"*0.8"		// Needs to be reciprocal of the refill rate multiplier - 1 / 1.25
        }

		spree_lvl1_grapple
		{
		}
		spree_lvl2_grapple
		{
		}
		spree_lvl3_grapple
		{
			"fire_rate"										"*2.25"
		}
		pas_power_cell
		{
			//this not used, actual setting in pilot_mp.set
			"regen_ammo_refill_rate"	"*1.35"
		}
        looking_at_hover_tank
        {
            "grapple_maxLength"								"1800"
            "grapple_maxLengthVert"							"1800"
        }
		pm0
		{
			"grapple_power_required"	"0"
			"grapple_power_use_rate"	"0"
			"offhand_hold_enabled"		"1"
			"fire_mode"					"offhand"
			"instant_swap_to"			"1"
			"instant_swap_from"			"1"
		}
		pm1
		{
			"grapple_power_required"	"0"
			"grapple_power_use_rate"	"0"
			"offhand_hold_enabled"		"1"
			"fire_mode"					"offhand"
			"instant_swap_to"			"1"
			"instant_swap_from"			"1"
			//
			"grapple_maxLength"			"3000"
			"grapple_maxLengthVert"		"3000"
		}
		pm2
		{
			"grapple_power_required"	"0"
			"grapple_power_use_rate"	"0"
			"offhand_hold_enabled"		"1"
			"fire_mode"					"offhand"
			"instant_swap_to"			"1"
			"instant_swap_from"			"1"
			//
			"grapple_maxLength"			"3000"
			"grapple_maxLengthVert"		"3000"
			//
			"impulse_force"   								"20000"
			"explosion_damage"								"100"
			"explosion_damage_heavy_armor"					"400"
			"explosion_inner_radius"  						"75"
			"explosionradius" 								"350"

			custom_float_0		1.5		// CHARGE TIME
		}
		amped_tacticals
		{
			"grapple_power_required"						"50"
			"grapple_power_use_rate"						"50"
		}

		all_grapple
		{
			"grapple_power_required"						"33"
			"grapple_power_use_rate"						"33"
		}
        survival_finite_ordnance
        {

        }
	}
}